2016 US Election · Portfolio website for Kostis Christodoulou | Appllied Statistics
…
#filtering for CLinton and Trump
cumulative_contr <- cumulative_contr %>% 
  filter(cand_nm == "Clinton, Hillary Rodham" | cand_nm == "Trump, Donald J.",
         contb_date <= as.Date("2016-11-08"))

cumulative_contr

## # A tibble: 1,047 x 4
## # Groups:   cand_nm [2]
##    cand_nm                 contb_date daily_contr_sum daily_contr_cumsum
##    <chr>                   <date>               <dbl>              <dbl>
##  1 Clinton, Hillary Rodham 2015-04-11              6                  6 
##  2 Clinton, Hillary Rodham 2015-04-12         213330.            213336.
##  3 Clinton, Hillary Rodham 2015-04-13         194823.            408159.
##  4 Clinton, Hillary Rodham 2015-04-14         164580             572739.
##  5 Clinton, Hillary Rodham 2015-04-15         148065             720804.
##  6 Clinton, Hillary Rodham 2015-04-16         136906             857710.
##  7 Clinton, Hillary Rodham 2015-04-17         108677.            966387.
##  8 Clinton, Hillary Rodham 2015-04-18         101760            1068147.
##  9 Clinton, Hillary Rodham 2015-04-19          52320.           1120467.
## 10 Clinton, Hillary Rodham 2015-04-20         103706.           1224174.
## # ... with 1,037 more rows
…
